name;gender;age;postCode
Nevil Simenel;Female;74;61748
Nicola Edel;Male;62;91607
Tomasine Huby;Male;44;88614
Britta Matteotti;Female;25;32300
Jareb Neeves;Female;20;58633
Andie O'Lagene;Male;37;22688
Ado Gatman;Male;25;16506
Brander Pescott;Male;33;86444
Fredric MacNeely;Female;43;46401
Angil Paxman;Male;23;39758
Thibaud Muff;Male;39;29971
Ludovika Taill;Male;60;92605
Carrie Scneider;Male;59;27037
Wallis Amiable;Male;66;89211
Sharon Spafford;Female;61;36947
Mollie O'Mullaney;Female;22;49633
Elayne Demeter;Male;25;43196
Ashia Rickets;Female;49;53060
Dulsea Ravenscroft;Female;45;89222
Ranna Toke;Female;47;36516
Kellen Nilles;Female;54;95742
Parnell Tipler;Male;51;24544
Mandi Davidwitz;Female;52;51544
Adelle Josefsen;Female;83;11608
Norry Case;Female;36;70267
Efren Dillon;Female;71;54578
Jaquith Passfield;Male;48;64344
Tallie Sexten;Female;59;78303
Eleanore Streeting;Female;74;97091
Hertha Garroch;Male;23;90493
Berton Switsur;Female;29;83270
Johnna Conradie;Female;57;83665
Thomasina Mugford;Male;32;10281
Jemimah Staunton;Male;72;20629
Richy Renzullo;Female;63;33737
Johann Bridgement;Male;79;52117
Mitchel Massinger;Female;84;12248
Jenny Force;Male;75;62154
Rory Cressy;Female;64;37936
Lula Eddowis;Female;34;55585
Gussy Hynd;Female;39;66514
Camilla Benedicto;Female;43;91802
Tabina Shortan;Male;53;94738
Steffane Ferrucci;Male;72;76260
Anna Deviney;Male;70;47532
Berne Tirrey;Male;68;24593
Isabeau Corrigan;Female;77;48004
Lia Beevis;Male;57;95193
Kassandra Cuer;Male;60;29312
Duffy Fisher;Female;71;99902
Ethelbert Skittle;Female;74;71349
Eulalie Sharrem;Male;21;47517
Hamid Kamiyama;Male;81;31078
Sheffy Budgen;Female;45;42909
Adiana Oluwatoyin;Female;28;80936
Glad Morrant;Female;37;61870
Karissa Linnett;Female;77;95833
Nessi Balling;Female;78;32438
Cole Karpf;Male;81;77884
Daryn Pilgram;Female;62;26402
Theobald Mc Curlye;Male;51;11072
Zebulen Pedrazzi;Male;77;94682
Jackquelin Bruckshaw;Male;23;23501
Scarface Makeswell;Female;70;18584
Konstantin Boorer;Male;41;25200
Thomasine Sorensen;Male;55;14529
Anna-diana Riveles;Female;64;32739
Margarethe Sinkinson;Male;63;99842
Jorrie Odegaard;Male;70;69373
Jaime Brydell;Male;83;76583
Ardelle Espino;Female;59;42974
Francine McGuinness;Male;47;85543
Parry Wollard;Female;74;71226
Blake Tooze;Male;51;25853
Cooper Heijnen;Female;30;53973
Ewart Janway;Male;80;32563
Cassy Flanders;Female;55;99012
Cyrus Korf;Female;78;64694
Abby Proschke;Male;39;30752
Prudence Slateford;Female;57;26744
Daffi Lammin;Male;36;28542
Ryan Ingles;Male;28;14319
Oren McEnery;Male;61;39918
Konstanze Itzak;Male;38;36804
Darryl Sweeney;Male;26;96819
Nonah Lowdham;Male;79;56990
Kassi Sturzaker;Male;48;41430
Esmaria Threader;Male;44;28819
Nanette Northin;Male;26;51035
Rubie Remmers;Male;68;50815
Richmond Blazey;Female;48;84804
Tobias Ginger;Male;42;55116
Chelsea Pettus;Female;78;62573
Ode Manifould;Female;20;99231
Dreddy Geertje;Female;25;94564
Aloysius Broadis;Female;25;86047
Ruperto Dillingstone;Female;23;95613
Channa MacLese;Male;40;75705
Bryn Hughes;Male;29;63604
Care Elwel;Male;74;85945
Hillary Clorley;Male;28;18796
Leisha Kaman;Male;25;53151
Danica O'Shavlan;Male;66;28357
Robby Lippingwell;Female;68;34996
Wake Stiffkins;Female;83;80501
Godfree Scheffel;Male;83;31137
Mariya De Few;Female;84;79964
Kiri Klimochkin;Male;55;52810
Manya Andren;Female;79;21751
Bryn Shillinglaw;Female;77;50264
Roderick Byres;Female;48;54535
Karim De Cleyne;Male;66;96208
Mei Castro;Female;21;81959
Bonnibelle Buckmaster;Female;78;33860
Eugenia Pearle;Male;52;76540
Constantin Skoggins;Male;52;42925
Sutherlan Hammerberger;Male;51;20962
Cesare Beneix;Female;42;73717
Anne Michie;Female;28;60108
Adlai Poli;Male;31;79406
Letti Prichard;Male;73;12144
Scott M'Quharg;Male;41;47344
Gerardo Copp;Male;23;74488
Nickola Geistmann;Female;27;27066
Bridie Oakenford;Male;68;90863
Bernardina Benoist;Female;83;72212
Adolph Knock;Male;25;32573
Therine Tilberry;Male;22;38216
Venus Rundall;Male;77;24504
Gerianne Diche;Male;64;77705
Zack Simukov;Male;68;14217
Karlen Decayette;Female;55;13926
Johnette O'Fallowne;Male;28;26261
Clair Mustoo;Female;69;79654
Paten Kilrow;Male;40;80425
Boyd Aphale;Male;48;29041
Brittni Barter;Male;37;61292
Conny Trobe;Female;28;65767
Correy Dronsfield;Male;74;42667
Glenden Kreber;Female;45;15112
Godard Esplin;Male;36;76721
Robb Chilcotte;Female;27;76567
Graig Rottery;Female;67;66123
Meyer Chad;Male;45;95917
Ilario Jeandel;Male;62;16938
Daniella Buckler;Male;32;87292
Ashton Wozencraft;Female;60;94074
Jobey Filoniere;Male;41;30136
Chloris Shobrook;Male;66;84165
Marcelo Wainer;Male;82;81100
Burty Poleykett;Female;67;45067
Keefe Kiddy;Male;70;89564
Marian Antonio;Female;61;78180
Dasha McShea;Female;43;85143
Mariquilla McEnhill;Male;66;94200
Christoph Kingsley;Male;22;13841
Thadeus Loade;Female;49;39730
Sena Voller;Male;65;67667
Eleonora Jump;Female;75;40640
Riley Le Grand;Female;74;88512
Storm Simmell;Male;69;84567
Lorrayne Ruske;Female;20;41601
Jaime Oxley;Male;20;51514
Pepe Sawell;Male;66;27188
Morrie Mathieson;Male;65;54211
Jennica Giovanizio;Male;79;92881
Lenee Huguet;Male;81;92010
Harmonia Husselbee;Male;52;85249
Gretna Simmens;Male;69;76877
Yves Dillingham;Female;46;23536
Brooks Barnewelle;Male;28;13483
Wilbert Greenig;Male;40;93933
Rubia Iacobo;Male;68;11530
Merl Alvarado;Male;64;90789
Dagny Meineck;Female;28;88305
Lanie Stonham;Male;48;79971
Shoshanna Nancekivell;Female;73;55935
Christye Iston;Female;64;85083
Yorke Kunisch;Female;22;95321
Felisha Clark;Female;48;74591
Amanda Howden;Male;39;22134
Jeno Ogilvy;Female;51;24569
Sasha Arney;Female;55;28692
Dita Cloonan;Male;53;29983
Bernadine Baumadier;Male;23;31664
Ameline Doig;Male;45;47803
Oswell Leaves;Male;55;11478
Hamnet Bulcroft;Female;62;53082
Olga Wakeman;Male;20;31360
Lucilia McElane;Male;37;48493
Sandro Royden;Male;69;40671
Anders MacQuist;Female;57;40535
Nester Penniell;Female;68;40754
Yolanda Mairs;Female;50;49741
Willis Dannell;Female;27;60469
Phineas Kilshaw;Female;84;30283
Maurits Tremblot;Female;70;69713
Anatole Mead;Male;57;30115
Dylan Coldbathe;Male;70;85146
Elisha Hannay;Male;50;56881
Ritchie Dunklee;Female;33;78966
Sherrie Tenpenny;Male;53;43491
Gonzales Sprakes;Female;57;66105
Rowland Mannock;Female;37;18173
Eben Allsebrook;Female;72;83751
Dudley Pendall;Female;29;16770
Laurence Salerg;Male;72;18112
Florida McCaffrey;Male;80;21637
Bella Diggin;Male;39;14829
Erna Dagg;Female;72;65123
Neda Grinston;Male;20;86606
Elenore Pedican;Male;54;93925
Jordan McMoyer;Male;77;64825
Dulcea Dinwoodie;Male;36;48111
Lowe Le Galle;Male;28;80897
Alyse Coil;Male;38;49111
Lexy Nattrass;Male;69;15627
Cam Smoughton;Female;46;66814
Elmore Oene;Male;25;79700
Carrie Polhill;Male;83;46219
Elle Disbrey;Female;30;67021
Emanuele Skyppe;Male;66;51195
Riva Longshaw;Female;50;50538
Stevy Wudeland;Female;38;62858
Ronnica Genike;Female;49;60593
Debi Aliman;Male;34;64514
Hetti Harbison;Male;35;75483
Lurline Duinbleton;Male;25;90368
Sharai MacArd;Female;54;82682
Sibylle Penhearow;Female;61;14468
Ramonda Caddies;Female;53;89151
Bethina Matoshin;Female;31;42937
Nissa Rapson;Male;43;32277
Xever Mehew;Female;31;61152
Wang Peirce;Female;23;62065
Wade Blockley;Female;29;85060
Christoforo Woodes;Male;41;24434
Eartha Rouse;Male;67;47722
Spenser Endecott;Female;25;19126
Cosette Thwaites;Female;77;67217
Atalanta Antonetti;Male;21;44927
Anissa Dmitrienko;Female;73;17034
Tedman Rockliffe;Female;35;91351
Dyanne Jerrom;Male;75;85799
Cully Tuddall;Female;69;61286
Joan Ashingden;Female;49;11116
Theo Cloy;Female;77;13001
Boote Pieter;Male;47;35232
Lind Gratrix;Male;43;50661
Greg Giblin;Male;76;86168
Sarita Borgnol;Male;51;49816
Allyn MacTeague;Female;64;39059
Erma Dowtry;Female;46;56256
Joel Elgood;Male;57;72299
Millisent McKleod;Male;39;48774
Alaric Stute;Male;30;31236
Katlin Beinke;Female;26;86384
Inna Teece;Male;21;63250
Hanna Cloute;Female;80;52360
Jeramey Crosgrove;Female;47;11026
Iosep Sollas;Female;58;71336
Kesley Semor;Male;66;41260
Tessa Worgen;Male;38;62013
Hilton Gaspar;Female;32;45000
Cati Philpots;Male;25;80983
Coop Esslement;Male;23;42839
Reinaldos Bewshire;Male;34;54129
Luisa Bagot;Male;62;89838
Roanna Rossey;Female;35;37395
Daisy Spracklin;Female;80;92954
Lethia Wilcocke;Female;54;82227
Ozzy Guihen;Female;54;95555
Bird Farnin;Female;25;98556
Guglielma Klauer;Female;61;27024
Georgiana Roskilly;Female;26;89455
Sidnee Moreno;Female;72;80552
Jena Lindeboom;Female;66;13594
Dierdre Archdeckne;Male;84;96680
Caryn Botcherby;Male;75;78598
Theodoric Whitebread;Male;47;51112
Essie Latey;Female;47;96421
Brianne Giuron;Female;55;91336
Mitchel MacDirmid;Female;63;38680
Xerxes Ledington;Female;55;14306
Rolf Casaro;Female;60;10278
Parker Gosswell;Female;61;69435
Biron Pehrsson;Female;43;77006
Brod Grigolashvill;Female;48;82975
Kellen Havesides;Male;57;11822
Tedda Cretney;Female;64;24928
Tiffy Jaray;Male;63;60681
Gene Siely;Female;52;25799
Lee Blesdill;Female;22;94099
Jennie Ebbitt;Female;29;70166
Constantina Wraight;Female;45;35819
Karoly Cowmeadow;Male;45;64666
Hy Brickell;Female;50;76683
Eloisa Ewbank;Male;29;83002
Rudolf Cassey;Female;58;77713
Antonietta Pawson;Male;40;86861
Sarge Flewitt;Female;36;29990
Henriette Dulin;Female;68;84560
Cass Mangham;Female;56;19961
Jeniffer Grima;Male;78;61263
Debby Langcaster;Female;84;19200
Jim Hurich;Female;78;18695
Cleo Payley;Male;27;60557
Emmeline Kencott;Male;78;63414
Malanie Pennyman;Female;46;14024
Yorke Greeno;Female;44;72671
Tam Innman;Female;50;52779
Dorisa Slaght;Male;59;79943
Katherine Leonard;Female;24;98185
Andreana Lamperd;Male;36;43973
Gloriane Mandrake;Male;26;74810
Jedediah Statefield;Male;74;10624
Fifi Buesnel;Male;41;91358
Jone Smullin;Female;35;60782
Persis Flobert;Female;37;21050
Merola Godlee;Male;83;79918
Dareen Plinck;Female;66;98705
Vincenty Warlow;Female;56;62375
Julina Cowdrey;Male;75;94708
Livvy Souten;Female;46;74338
Hal Solly;Male;63;98482
Harmony Kearney;Male;28;16729
Robbin Roseaman;Male;72;13321
Katrina Edmund;Male;84;11827
Madison MacLardie;Female;48;73519
Petronella Pahl;Female;36;70613
Keelby Shelper;Female;66;22889
Emylee Paulitschke;Male;44;87172
Virginia Dudderidge;Female;37;17061
Abigale Mugleston;Female;23;58020
Noble Colgrave;Female;21;30653
Laetitia Darlington;Male;53;55572
Terrence Coffee;Female;53;47724
Eddy Kalaher;Male;80;98039
Der Mapledorum;Male;24;33595
Gertrud Rubery;Female;75;31684
Cybil O'Shevlan;Female;47;73379
Willabella Joslow;Male;43;13238
Alejoa Fosher;Female;62;66930
Cathlene Smogur;Male;77;84450
Hewie Oldfield;Female;79;96197
Minerva Dillinton;Male;20;54891
Giorgi Burnhard;Female;34;75280
Hastings Jakuszewski;Female;41;74115
Sander Klich;Female;56;85562
Caleb Heenan;Female;27;19495
Wolfgang Mowbray;Male;55;72295
Sibley Perone;Female;48;43157
Etty Osbaldeston;Female;21;43358
Annalise Keeri;Male;20;41003
Zena Lukesch;Male;63;40506
Isabella Bundock;Male;28;92293
Blakeley Corhard;Male;36;53731
Kendell Beakes;Female;54;27719
Grover Piotr;Male;63;85097
Cyrill Domokos;Male;68;78378
Biron Spofford;Female;68;22750
Tammie Whiteway;Male;72;92681
Paquito Rogliero;Male;72;92291
Riccardo Muncer;Male;64;70586
Colin Dunn;Female;73;70375
Waring Rollin;Female;25;38718
Web Paddeley;Male;61;78898
Guinevere Menchenton;Male;48;23037
Hodge Thorington;Female;78;37919
Leslie Saines;Female;56;57582
Darnell Vido;Female;48;52522
Culver Smerdon;Male;36;68418
Leighton Jarrad;Female;30;88003
Emelen Garces;Male;80;31949
Joelynn Fenech;Male;68;47652
Andrei Leadley;Male;38;40665
Cello D'Cruze;Male;68;84196
Elbertine Strivens;Male;77;18454
Nonie McGirr;Female;82;60708
Chelsae Derrell;Female;81;53045
Rudolf Catley;Male;57;84196
Aldo Strutt;Female;36;28910
Nicolas Oldroyd;Female;36;25273
Lyda Libbey;Male;67;21688
Elga Carmo;Female;60;53947
Cchaddie Bracknall;Male;78;69955
Nickie Foulstone;Male;63;65237
Kym Silcox;Female;22;65735
Martainn Hurl;Male;58;74163
Marthe Haskur;Male;35;72076
Rakel Norfolk;Female;64;16718
Matthew Atwill;Male;21;46047
Sargent Tomovic;Male;73;72521
Milicent Synan;Female;75;61377
Myriam Liepmann;Female;43;77599
Page Berndt;Male;25;64499
Shayla Brailsford;Male;77;41238
Kathrine Rue;Male;64;89033
Marcelo Bollin;Female;28;74970
Donalt Neath;Male;83;94909
Adora Christopher;Female;53;69417
Kenton Strand;Female;50;78322
Ranna Punch;Male;59;36737
Gardie Ebbage;Male;72;98744
Marla Franklyn;Male;32;34801
Clareta O'Cassidy;Female;74;45330
Marnie Antonopoulos;Female;65;63910
Elie Crook;Male;25;11290
Clareta Beevers;Female;26;41056
Pet Enderson;Male;61;75330
Reagen Marty;Male;33;21983
Bailie Beattie;Male;42;81753
Rutherford Lomasny;Female;23;85452
Pacorro Fairholm;Male;69;64698
Lucita Conelly;Female;48;29579
Raquela Gaule;Male;45;40313
Elihu Thairs;Female;75;47774
Evyn McCaffrey;Female;36;20136
Maia Reymers;Male;32;99742
Nikita Spinke;Female;59;44120
Elna Tapply;Male;24;48649
Fernando McCallum;Female;67;99447
Lief Udell;Male;42;96059
Barton Grassi;Male;80;66621
Mureil Belitz;Male;31;56614
Justin Pithcock;Female;63;72168
Heinrik Bentzen;Male;63;10482
Dukie Vink;Male;37;58653
Melisent Stiffkins;Female;43;78945
Maridel McMeekin;Female;75;73368
Tricia Feldmann;Female;51;18777
Patsy Miner;Female;51;67812
Coleen Beavis;Male;29;92676
Albrecht Melvin;Male;85;27776
Halette Gayther;Female;36;36292
Roch Malthouse;Female;67;62221
Devin Lavarack;Male;29;61806
Gwenora Fogel;Male;53;71762
Cornelle Janosevic;Female;73;73548
Sullivan Blaszczak;Female;21;24904
Jewel Tonner;Female;69;84407
Elsa Danilov;Female;72;13063
Banky Macellar;Female;38;13135
Newton Tremethack;Female;29;51671
Nerta Lamblin;Female;50;49246
Mitzi Pestor;Male;58;54031
Torrence McBrearty;Male;79;32490
Horton Mulhall;Male;68;44505
Thorpe Autry;Male;35;39368
Cathee Decker;Female;69;42172
Giavani Latham;Female;85;23172
Lyndell Varley;Female;39;73167
Sauveur Bottomore;Female;53;11366
Phil Eliasen;Male;42;78189
Violet Blaycock;Female;69;71202
Obediah Bowfin;Male;72;70637
Brnaby Borham;Male;85;70479
Myrtia Delamere;Female;58;40912
Magda Severwright;Male;55;78490
Davon Crew;Male;60;92611
Maximo Poulglais;Male;43;81892
Sascha Bromage;Male;73;67569
Shay Pippard;Male;59;97102
Shantee Titterrell;Female;85;61883
Jolyn McOmish;Female;30;64575
Ella Brookz;Female;85;26555
Nanni Golledge;Male;26;35067
Riccardo Blose;Male;57;99345
Xymenes Proudlock;Female;75;65260
Mahalia Cockrell;Female;39;11960
Trueman Crawcour;Male;71;78189
Hattie Salle;Female;32;74986
Peggy Pentland;Female;33;22350
Ancell Kitcher;Male;74;48864
Myrlene Winsbury;Female;22;56576
Huntlee Roset;Male;50;84374
Bordy Scain;Female;35;20238
Guss Lanchberry;Female;70;37314
Aurelia Inkpin;Female;42;11392
Cal Fittis;Male;57;84157
Luci Kinastan;Male;28;32948
Kandy Ruggs;Female;75;34460
Fidelia Henze;Male;44;31440
Gene Towey;Female;68;41476
Neddy Reinisch;Male;71;14475
Shelbi Roistone;Male;43;93366
Heidie Bosma;Female;84;59377
Ainslee Dredge;Female;74;38057
Raphael Le Houx;Male;61;58846
Hyacinthie Kasman;Female;39;74847
Foss Fosken;Female;54;50740
Arabella Dodge;Female;40;62731
Clarette M'Quharg;Female;65;28470
Fay Bealton;Male;70;70637
Alexandr Elcoate;Male;68;49003
Neille Reinger;Male;26;24571
Dedra Jager;Male;42;56280
Cathe Bourrel;Male;41;66224
Brunhilde Bracken;Female;69;38296
Barrett Busain;Male;66;19903
Stanwood Burehill;Female;75;23626
Audrye Pendlenton;Male;72;31822
Hermine Atthowe;Female;27;72998
Dorie MacAvaddy;Male;34;99991
Faber Southall;Male;65;69698
Margie Angrove;Male;42;47778
Mendy Whates;Female;26;71936
Michele Gronauer;Female;81;28023
Alic Deegan;Female;43;20245
Elmer Vinnicombe;Male;35;94404
Kanya Albarez;Female;28;54074
Koressa Maton;Male;80;62875
Margaretha Baton;Female;66;59774
Vaclav Vowles;Male;20;43184
Doralin Tort;Male;38;60726
Kerr Berns;Male;70;55300
Celle Orwell;Female;36;34802
Martina Haskew;Male;28;93405
Silvia Lansdale;Female;28;54500
Keenan Stocky;Male;56;23016
Poppy Dengel;Female;50;60467
Carce Aspinal;Female;35;35224
Darcey Hallbord;Female;82;78534
Stevana Lardner;Male;45;10582
Jake Tilby;Female;56;87044
Rudyard Gaywood;Female;21;96578
Early Grabbam;Male;54;54684
Babs Brea;Male;38;93133
Jo-anne Glendenning;Female;59;62902
Izabel Lanceter;Female;46;57430
Hillard Vahl;Female;72;73186
Renard Scobbie;Female;65;22839
Tedi Orth;Male;78;35584
Daryle Cervantes;Male;24;12712
Marlee Curner;Male;67;85083
Marve Vanyard;Female;84;94744
Ingrid Swansborough;Male;77;73895
Cosme Bendelow;Female;35;80471
Cristal Postians;Female;42;40078
Stacey Matthias;Male;38;81955
Franny Stamps;Male;49;66639
Cord Hassan;Male;28;99285
Gerek Rings;Female;21;56215
Harald Skippings;Male;78;27748
Garek Hodgen;Female;25;63541
Elia Mousley;Female;34;18613
Augustus Pullman;Female;28;88030
Deonne Wyllis;Female;51;55949
Carena Doerrling;Male;36;98352
Hunter Janny;Male;52;36415
Susi Petti;Male;23;83283
Tawsha Ranscomb;Male;81;33843
Alicea Pengilley;Male;51;62498
Mabel Hughs;Female;20;71311
Paddie Hulks;Female;76;99500
Eddie Haimes;Male;51;33333
Alleen Wapol;Male;81;44383
Hilliary Nund;Female;77;25141
Melisande Kimmons;Female;39;60222
Maxwell Harper;Female;55;99964
Callida Workes;Male;68;83508
Wallache Rizzi;Female;66;74293
Bertram Whitwam;Female;29;68698
Genia Lackeye;Female;27;76959
Starlene McConaghy;Female;48;21269
Sylvan Shenfish;Female;24;99298
Agnola le Keux;Female;27;67005
Fernande Merit;Female;67;84939
Estele Dulanty;Female;52;64190
Timmy Vowdon;Male;75;49575
Harwell Leavy;Male;23;63474
Robin Chesshire;Male;49;86544
Mella Bernardeau;Female;32;95548
Carlota Regan;Female;38;59527
Gil Cawkill;Female;75;58504
Faulkner Adriano;Female;64;24807
Sanderson Dufoure;Female;49;10353
Justina Tutin;Male;77;61119
Clement Rassell;Male;69;33065
Herb Wenman;Male;72;23732
Johannah Danielis;Male;41;89867
Adora Davidov;Female;54;80539
Beauregard Valance;Female;60;16847
Julian Zylberdik;Male;28;35145
Yolande Ogers;Female;45;86361
Carroll Dunbleton;Male;58;50447
Eirena Millbank;Female;65;47487
Mychal Pettinger;Male;85;45229
Phillis Deners;Female;31;54295
Stephenie Rogers;Male;40;59062
Margaretta Pierton;Female;26;30054
Herculie Edginton;Female;22;45931
Free Banes;Male;48;84309
Correy Billam;Male;26;29559
Hamlin Weippert;Male;22;76844
Ulises Bredes;Male;29;17241
Augustine Paulton;Female;24;67351
Merry Schaumann;Male;27;23118
Fax Brassill;Female;44;99943
Ede Trahar;Male;39;99048
Dolly Dolohunty;Female;62;31987
Stafford Anglin;Female;38;32516
Trista Windus;Male;74;84503
Marne Harry;Male;32;81047
Jdavie Sheed;Female;68;99589
Kinna Yurshev;Female;30;50731
Ilario Hammerman;Male;76;14381
Gustavo Careswell;Female;74;38958
Si Shutle;Female;80;10447
Tadeo Feather;Female;80;47552
Drusie Gaspero;Male;56;86015
Maryann Inder;Female;49;86081
Keven Farren;Female;28;77141
Blaire Sidry;Female;59;97077
Gwen Liccardo;Male;49;95524
Killian Glasheen;Female;55;62991
Constantina Dewi;Female;52;21272
Petronille Eddowis;Male;29;28056
Israel Wooldridge;Female;36;76631
Garrick Daskiewicz;Female;29;18186
Mildrid Watting;Female;74;46367
Valene Gheeraert;Female;27;77064
Tamas Alder;Female;28;72619
Elisha Carrell;Male;38;41209
Rory Jacobovitz;Male;23;22259
Jeffy Elgee;Male;30;68512
Renado Seaward;Male;31;27858
Araldo Dobbson;Female;20;47770
Claresta Trude;Female;80;45516
Maurise Swallwell;Female;75;27324
Ella Pringour;Female;35;80144
Valeria Jobb;Male;82;24031
Hanson Nellies;Female;83;82115
Kyrstin Cressor;Female;79;67248
Emmalyn Isard;Female;67;64340
Mandie Iacopetti;Female;57;57857
Reba Geely;Female;70;38308
Lisha Ransley;Male;53;58411
Elysha Pirozzi;Female;36;19303
Ebenezer Casone;Male;81;14902
Halsy Andriolli;Male;77;79064
Renaud Twiggins;Male;85;82299
Valerye Box;Male;36;18945
Franzen Epp;Female;74;17312
Jaclyn Alenikov;Male;52;28724
Terence Bond;Male;61;68621
Donny Orum;Male;81;42173
Shanta Anning;Male;42;95513
Raddy Terbrug;Male;43;67600
Griz Szabo;Female;28;59865
Gearalt Mattea;Male;34;81002
Nerti Kolyagin;Male;49;80881
Candra Simkiss;Female;84;10936
Lucille Lawlor;Female;56;88666
Shandeigh Mandal;Female;37;69713
Laraine Peeke;Female;50;74537
Cal London;Female;56;46711
Glenden Mein;Female;29;95274
Augustine Treske;Female;71;85201
Rosa Ogle;Male;72;40820
Freeman Cahalan;Male;37;73373
Baldwin Routhorn;Male;63;93907
Percival Lochet;Female;83;20857
Lane Cail;Female;62;90000
Alfy Petricek;Female;43;87230
Zola MacKonochie;Female;67;80005
Aguste Botterman;Female;64;34386
Sascha Conklin;Male;53;46830
Seward Evenett;Male;24;52060
Adriano Goodship;Male;47;67254
Blakeley Lavielle;Male;39;68537
Erik Maysor;Female;74;84947
Whitney Richardot;Male;61;74246
Lane Donisthorpe;Male;49;50334
Tabb Fobidge;Female;72;42669
Gavra Shenley;Female;64;69786
Trudi Mackriell;Male;74;47938
Ninette Presnail;Male;83;47047
Gisella Hutchin;Female;69;28539
Willie Downton;Male;69;25637
Emmery Caudrey;Female;42;87977
Celestia Cadle;Female;66;71064
Hort Ferras;Female;49;80183
Benedikt Fenemore;Female;79;65098
Kelila Leaman;Male;45;40851
Eloisa Gromley;Female;42;81447
Francis Gaskin;Male;72;68958
Georgina Bawme;Female;21;62480
Cindi Darrigrand;Male;72;42974
Casar Cogman;Female;35;27699
Trey Arch;Female;23;80977
Casie Pauwel;Female;64;21502
Gigi McNee;Male;64;27204
Kirby Fley;Female;82;23873
Vivia Putton;Female;47;94913
Norri O'Suaird;Female;65;65600
Marylee Prine;Female;20;54066
Stevie Rosso;Male;53;45609
Jeanette Seppey;Male;74;84177
Mikel Levitt;Female;59;47826
Mari Doyley;Female;76;37111
Cobb Glidder;Female;70;91726
Nealson Lipscombe;Female;50;32549
Don Voysey;Female;34;78555
Udell Wimpey;Female;85;22224
Cheri Pembery;Female;40;35472
Maxine Pragnall;Female;70;46167
Carley Mintrim;Female;21;79765
Mitzi Wadsworth;Female;20;99738
Thatcher Gravenor;Male;85;49898
Cecil Kneebone;Male;75;46156
Phillis Garr;Male;40;95994
Bartlet Outhwaite;Male;84;42402
Amie Bristoe;Female;66;42541
Colette Freake;Male;75;63522
Gaston Sunock;Male;53;68957
Gertrud Kohen;Female;76;16379
Neill Freezor;Female;20;66466
Margaretta Kaubisch;Male;22;62760
Sheffie Millett;Female;72;31850
Tony Trusler;Female;59;88158
Kathy Orsman;Male;77;42065
Elvin Foxley;Male;73;67216
Olwen Grenshiels;Female;46;14084
Sol Vidineev;Female;46;76680
Bordy Buttrum;Male;69;89651
Trefor Flea;Male;59;29624
Miran Giannazzo;Male;53;95433
Elva Lavis;Male;39;55502
Robb Quantrell;Female;38;33369
Gerard Caesman;Female;40;31934
Lawton Huggett;Male;43;41559
Thurstan Ripon;Female;34;89540
Romy Quincey;Male;26;56433
Collie Jaquin;Female;32;54673
Celestyna Billham;Female;70;62368
Debi Aldersea;Male;60;58912
Caryl Brittan;Male;44;34272
Ange Mapson;Female;45;14760
Agna Biernacki;Female;42;74893
Arlen Senton;Male;27;57371
Kelley Bestiman;Male;58;73153
Natalie Kapelhof;Male;35;66021
Cami Eustace;Male;74;42200
Wheeler Aylwin;Male;70;39395
Berthe Limpkin;Male;78;70224
Cece Aykroyd;Male;82;98155
Aguste Fergyson;Male;68;51177
Raimundo Stagge;Male;60;59252
Somerset Kingsworth;Male;62;92070
Roseann Ten Broek;Male;61;23490
Philippa Mackney;Male;82;69707
Sinclare Linham;Female;31;27626
Ives Bech;Female;31;11958
Venus Schoular;Male;40;28312
Leontyne Atwood;Male;37;45531
Zeb North;Male;51;62833
Violet Schwartz;Male;30;52185
Genna Rapkins;Male;49;72423
Kiah Aubry;Male;25;62990
Cosimo Caves;Male;57;39432
Ange Padwick;Male;33;93655
Tammie Sorensen;Female;52;74501
Montague Morrison;Female;42;77600
Ellissa Guess;Male;62;80208
Madelaine Lytle;Female;35;52984
Risa Georger;Male;70;20488
Carlee Juste;Male;40;45969
Terrance Toffetto;Male;76;20023
Currie Krzyzaniak;Male;60;60856
Fawn Chesters;Female;62;36440
Ava Albrecht;Male;40;79555
Jonie Russel;Female;66;75246
Harriet Kench;Female;76;49205
Finn Loxley;Male;53;70086
Virge Pauls;Female;57;31520
Adelbert Matschoss;Female;60;33708
Matelda Arundale;Male;26;10103
Marleah Giron;Male;60;37156
Philis Grumbridge;Female;66;65565
Bertie Roelvink;Female;68;11266
Wakefield Brashier;Female;60;16342
Agustin Lethebridge;Female;51;42224
Matthaeus Bentame;Male;72;27931
Caroline Monteath;Female;70;54806
Laurene Zanetto;Female;64;18284
Beatrice Pardue;Female;23;80966
Norry Roobottom;Female;41;45881
Roselle Bascombe;Male;73;39282
Kathye Cremen;Male;69;23927
Had Greggs;Female;77;46255
Hersh Agirre;Female;40;64701
Valentijn Pregal;Male;39;91711
Thorsten Ivanchov;Male;73;76818
Chad Kopje;Male;32;51442
Aviva Loughney;Male;51;65416
Silvie Medina;Male;42;57331
Hermina Shekle;Female;51;44424
Berri Grosvener;Female;74;81288
Kalina Aizkovitch;Male;22;92085
Lyn Ruddom;Male;48;83767
Wildon Kennady;Male;44;92376
Misha Calterone;Female;34;62850
Amalle Chesterfield;Male;24;25228
Babbie Snepp;Female;41;25127
Jefferson Heaysman;Female;79;37364
Guthrie Gibbie;Female;27;58529
Cymbre Heffernon;Male;55;90665
Courtenay Mangon;Male;58;16803
Say Wollaston;Female;51;62179
Marketa Hulburt;Female;35;31121
Kara-lynn Klimowicz;Male;79;26561
Marget Giorgielli;Male;85;17919
Evvie Broe;Male;38;45063
Davis Beals;Female;55;83345
Giordano Nockolds;Female;58;81120
Marne Heigho;Male;75;64731
Giffer Caesar;Male;85;95742
Lynette Hurch;Female;30;31082
Antin Polley;Male;80;47320
Dewey Arnholz;Male;35;32816
Rozanna Langmaid;Male;60;76307
Cord Baise;Male;28;86317
Enrica Gillott;Male;80;31185
Jourdan Batsford;Female;38;32333
Tiebold Padson;Male;46;95172
Noell Kettell;Female;36;60420
Lizzie Marchetti;Female;45;49360
Renato Straughan;Male;21;36113
Lacee Epperson;Female;58;41190
Lindsay Fackrell;Male;71;13237
Boy Pyle;Male;22;78353
Cyndie Ivanishin;Male;82;63810
Kristo Merchant;Male;20;64513
Gabby Mease;Female;22;48854
Vivi Constant;Female;39;79196
Melamie Keyden;Male;84;79577
Oralee Hughesdon;Male;77;72990
Reena Bandt;Male;56;90602
Janie Girtin;Female;79;59607
Neill Hannaford;Male;71;44957
Selena Buglar;Female;82;96457
Orbadiah Lyles;Male;71;40066
Petey Postins;Male;47;81008
Curtis Orr;Male;38;51292
Malanie Shemmans;Female;44;12095
Adan Winfindine;Male;65;70048
Nanice Caseri;Female;29;52277
Chris Margaritelli;Female;55;18247
Salem Paskin;Male;33;80958
Tiffanie McSperrin;Female;30;66966
Mervin Lorenzetto;Male;64;20299
Terri-jo Nel;Male;52;83791
Bernadette Weld;Male;74;45238
Allissa Rozzell;Male;40;43957
Harbert Whiteson;Male;66;21882
Nerte Beebe;Female;26;74600
Gertrud Crilly;Male;80;29090
Fan Gosselin;Female;78;88236
Felita Cockland;Male;85;56822
Natividad Beernaert;Female;21;76407
Philippe Widdecombe;Female;77;21534
Flossy Oddey;Male;52;25916
Manuel Jachimczak;Female;51;61185
Tim Dallemore;Male;57;36355
Bourke Frame;Male;74;66667
Ashlie Wofenden;Male;21;20204
Brooks Zmitrichenko;Male;51;85136
Georgy Leversuch;Male;23;54911
Cyrillus Donisi;Female;35;53352
Michel Causon;Female;51;52966
Inez Umpleby;Male;50;33412
Bernadina Knoble;Female;52;53817
Helena Asman;Male;38;60140
Yolanthe Hayle;Male;55;22953
Olly Ellett;Male;50;52611
Arlen Skayman;Male;29;63694
Sashenka Halsall;Female;34;63792
Brita Kenforth;Female;41;85062
Elvin Marde;Female;72;33158
Lily Oliver;Female;53;63676
Cherilynn Poulgreen;Female;65;80548
Ricardo Muro;Male;41;95868
Kliment Swinden;Male;37;43518
Curtis Sides;Male;46;24149
Wilow Battabee;Male;78;44967
Stan Giacopello;Male;22;26286
Justen Rotham;Male;73;72849
Cleve Fairy;Male;80;92712
Quintin Tregido;Male;81;65532
Skylar Botha;Female;46;13574
Clarette Courtenay;Female;63;74761
Steffie Yankov;Male;37;77453
Tremayne Kestell;Male;56;88850
Marchelle Manilo;Male;68;50162
Britni Barltrop;Male;60;75246
Bo Roaf;Male;29;28333
Haskell Iddins;Male;63;55699
Madelina Rowlett;Female;51;92548
Zebulen Gave;Male;49;10002
Vincent Seely;Male;24;45437
Trixi Stoller;Male;31;35232
Lenci Rymill;Female;74;64984
Damaris Knolles-Green;Male;48;56657
Pippa Natt;Female;82;98510
Brandy Athersmith;Male;26;25734
Connie McKellen;Female;66;99094
Seana Stenyng;Female;37;98584
Dion Goves;Female;68;68536
Marco Jaimez;Female;79;40108
Bridie Fendlow;Male;66;21868
James Bynert;Female;40;53473
Marchall Bragg;Male;37;37796
Chloette Skokoe;Male;48;46358
Don Bumpass;Female;32;45112
Anet Burchett;Male;36;37717
Aldo Mateev;Male;83;25433
Terese Hadigate;Female;26;32244
Livvy Moline;Female;63;44014
Elisa Stedell;Male;59;65649
Perry Winckworth;Male;84;24614
Aura Haddow;Male;73;78298
Papagena Yushkin;Male;49;72689
Ollie Trippick;Female;59;22996
Florance Ruselin;Male;48;43523
Joann Aguirrezabal;Male;74;24054
Oswell Fitzroy;Female;76;73561
Othello Wise;Male;63;91775
Elliot Skeggs;Female;58;66267
Marcille Gross;Male;79;37546
Octavia Ricson;Female;54;64377
Clive Killingbeck;Female;25;25761
Lissy Lyles;Male;54;95988
Kinna Goley;Male;52;69949
Felicdad Meadus;Male;79;57571
Bernita McKinney;Female;71;39050
Anny Rait;Male;52;31132
Clement McClinton;Female;67;27405
Ker Burkitt;Male;29;57154
Clair Penelli;Male;29;42558
Carilyn Dods;Male;79;45140
Ursulina Gamell;Male;83;29390
Adam Attride;Female;81;93425
Stanislaw Friedlos;Female;73;93156
Avivah Bozier;Male;70;76186
Salvatore D'Alessandro;Male;42;54352
Sheeree Gandrich;Female;44;22140
Aguste Lehr;Female;63;49986
Sidney Durrance;Female;38;23821
Kirbee Kyrkeman;Male;46;39742
Monty Fiennes;Female;81;64672
Ebony Nudds;Female;53;57827
Krystalle Dymond;Female;21;74510
Carlotta Hiddersley;Male;24;12494
Edik Dorrance;Female;55;61899
Revkah Challener;Male;36;12783
Faber Clay;Female;58;66225
Kelsey Leyfield;Male;23;58497
Terrie Hurlston;Female;24;44883
Laura Dreye;Female;63;24917
Karita Newlove;Male;81;62398
Bev Buffin;Female;74;87300
Antonina Inker;Female;76;61837
Evangeline Antonellini;Male;65;72445
Frederick Shelper;Male;63;89859
Flinn Faltin;Male;46;35858
Rodrique MacGruer;Female;80;33440
Billye Mc Faul;Male;74;30611
Bjorn Brogi;Female;73;16668
Tanitansy Kneebone;Female;84;43141
Winni Skeldon;Male;81;80697
Sauveur Vagges;Male;39;79572
Aileen Ellyatt;Male;81;55724
Micah Becerro;Female;63;76985
Dale Cruces;Male;73;12204
Carlynn Mongain;Male;39;27801
Steven Pindred;Female;70;24216
Shelley Mariault;Male;63;29936
Madelene Tigwell;Male;48;95545
Marcille Ackwood;Male;28;53892
Johannah Creavin;Female;69;42674
Julissa McKeurton;Female;36;34576
Jake Bonnesen;Female;79;44530
Vina Passe;Female;41;40011
Kerr Reolfi;Female;65;61145
Laurena Pandya;Male;47;10441
Dannie McQuin;Male;31;44284
Irina Cornier;Male;47;90804
Starlene Millam;Male;71;14237
Ursula Athy;Female;34;56066
Dorene Fryett;Female;25;93842
Dierdre Korneichik;Female;31;48557
Elvis Humphris;Male;67;43188
Orsa Tarplee;Male;37;68048
Neila Druce;Male;69;33106
Merrilee Beales;Male;43;11908
Roxane Disbrow;Male;30;59943
Erin Round;Male;24;52909
Roth Dow;Male;30;22942
Jodie Janton;Female;85;75945
